<?xml version="1.0" encoding="UTF-8"?>
<con:testCase id="f23bc78d-b588-4ad4-a1ec-b2e255537947" discardOkResults="false" failOnError="false" failTestCaseOnErrors="true" keepSession="false" name="Test Case 1" searchProperties="true" timeout="0" xmlns:con="http://eviware.com/soapui/config">
  <con:settings>
    <con:setting id="IncludeOverview">true</con:setting>
    <con:setting id="IncludeResults">true</con:setting>
    <con:setting id="FlowLayout">false</con:setting>
    <con:setting id="ErrorDetails">true</con:setting>
    <con:setting id="IncludeCoverage">true</con:setting>
    <con:setting id="GeneratableAllureReport@Folder">C:\Users\belin\AppData\Roaming\Microsoft\Windows\Network Shortcuts\Test-Suite-1</con:setting>
    <con:setting id="f23bc78d-b588-4ad4-a1ec-b2e255537947fileName">Test-Case-1</con:setting>
  </con:settings>
  <con:testStep type="restrequest" name="REST Request" id="c9e445cb-d07a-4bff-a289-c3627bcebf5d">
    <con:settings/>
    <con:config service="Core" resourcePath="/users" methodName="View" xsi:type="con:RestRequestStep" xmlns:xsi="http://www.w3.org/2001/XMLSchema-instance">
      <con:restRequest name="REST Request" id="a02a13fa-e64f-4bef-8b0f-0fe23e983827" mediaType="application/json">
        <con:settings>
          <con:setting id="com.eviware.soapui.impl.wsdl.WsdlRequest@request-headers">&lt;xml-fragment/></con:setting>
        </con:settings>
        <con:endpoint>https://reqres.in/api</con:endpoint>
        <con:request/>
        <con:originalUri>https://reqres.in/api/users/users</con:originalUri>
        <con:assertion type="Valid HTTP Status Codes" id="40daa46c-5408-4b34-a0be-7c2fd5382fdb" name="Valid HTTP Status Codes">
          <con:settings/>
          <con:configuration>
            <codes>200</codes>
          </con:configuration>
        </con:assertion>
        <con:assertion type="Response SLA Assertion" id="28320dc1-c476-4f4d-b812-68f90594071f" name="Response SLA">
          <con:configuration>
            <SLA>200</SLA>
          </con:configuration>
        </con:assertion>
        <con:assertion type="JsonPath Existence Match" id="8336ab1f-bd7c-4721-8cb4-0eefbf5516e3" name="Check for existence of [data]">
          <con:configuration>
            <path>$['data']</path>
            <content>true</content>
            <allowWildcards>false</allowWildcards>
            <ignoreNamspaceDifferences>false</ignoreNamspaceDifferences>
            <ignoreComments>false</ignoreComments>
          </con:configuration>
        </con:assertion>
        <con:assertion type="JsonPath Count" id="f85fe8f2-12d5-4eb0-9e9b-b52487f6aae0" name="Check count of [data]">
          <con:configuration>
            <path>$['data']</path>
            <content>6</content>
            <allowWildcards>false</allowWildcards>
            <ignoreNamspaceDifferences>false</ignoreNamspaceDifferences>
            <ignoreComments>false</ignoreComments>
          </con:configuration>
        </con:assertion>
        <con:assertion type="JsonPath Match" id="94b2cab9-ee23-4afb-86ba-ba5b614fe020" name="Match content of [0]">
          <con:configuration>
            <path>$['data'][0]</path>
            <content>{
   "id" : 1,
   "email" : "george.bluth@reqres.in",
   "first_name" : "George",
   "last_name" : "Bluth",
   "avatar" : "https://reqres.in/img/faces/1-image.jpg"
}</content>
            <allowWildcards>false</allowWildcards>
            <ignoreNamspaceDifferences>false</ignoreNamspaceDifferences>
            <ignoreComments>false</ignoreComments>
          </con:configuration>
        </con:assertion>
        <con:assertion type="DataAndMetadataAssertion" id="806229d8-8f71-45c1-8fcf-c17b5369bf2e" name="Smart Assertion">
          <con:configuration xsi:type="con:DataAndMetadataAssertion">
            <con:mode>Received Data</con:mode>
            <con:elements>
              <con:path>$['page']</con:path>
              <con:element>page</con:element>
              <con:operatorId>1</con:operatorId>
              <con:enabled>true</con:enabled>
              <con:expectedValue>1</con:expectedValue>
              <con:caseSensitive>true</con:caseSensitive>
              <con:numberType>true</con:numberType>
              <con:expectedDataType>2</con:expectedDataType>
            </con:elements>
            <con:elements>
              <con:path>$['per_page']</con:path>
              <con:element>per_page</con:element>
              <con:operatorId>1</con:operatorId>
              <con:enabled>true</con:enabled>
              <con:expectedValue>6</con:expectedValue>
              <con:caseSensitive>true</con:caseSensitive>
              <con:numberType>true</con:numberType>
              <con:expectedDataType>2</con:expectedDataType>
            </con:elements>
            <con:elements>
              <con:path>$['total']</con:path>
              <con:element>total</con:element>
              <con:operatorId>1</con:operatorId>
              <con:enabled>true</con:enabled>
              <con:expectedValue>12</con:expectedValue>
              <con:caseSensitive>true</con:caseSensitive>
              <con:numberType>true</con:numberType>
              <con:expectedDataType>2</con:expectedDataType>
            </con:elements>
            <con:elements>
              <con:path>$['total_pages']</con:path>
              <con:element>total_pages</con:element>
              <con:operatorId>1</con:operatorId>
              <con:enabled>true</con:enabled>
              <con:expectedValue>2</con:expectedValue>
              <con:caseSensitive>true</con:caseSensitive>
              <con:numberType>true</con:numberType>
              <con:expectedDataType>2</con:expectedDataType>
            </con:elements>
            <con:elements>
              <con:path>$['data'][0]['id']</con:path>
              <con:element>id</con:element>
              <con:operatorId>1</con:operatorId>
              <con:enabled>true</con:enabled>
              <con:expectedValue>1</con:expectedValue>
              <con:caseSensitive>true</con:caseSensitive>
              <con:numberType>true</con:numberType>
              <con:expectedDataType>2</con:expectedDataType>
            </con:elements>
            <con:elements>
              <con:path>$['data'][0]['email']</con:path>
              <con:element>email</con:element>
              <con:operatorId>1</con:operatorId>
              <con:enabled>true</con:enabled>
              <con:expectedValue>george.bluth@reqres.in</con:expectedValue>
              <con:caseSensitive>true</con:caseSensitive>
              <con:numberType>false</con:numberType>
              <con:expectedDataType>1</con:expectedDataType>
            </con:elements>
            <con:elements>
              <con:path>$['data'][0]['first_name']</con:path>
              <con:element>first_name</con:element>
              <con:operatorId>1</con:operatorId>
              <con:enabled>true</con:enabled>
              <con:expectedValue>George</con:expectedValue>
              <con:caseSensitive>true</con:caseSensitive>
              <con:numberType>false</con:numberType>
              <con:expectedDataType>1</con:expectedDataType>
            </con:elements>
            <con:elements>
              <con:path>$['data'][0]['last_name']</con:path>
              <con:element>last_name</con:element>
              <con:operatorId>1</con:operatorId>
              <con:enabled>true</con:enabled>
              <con:expectedValue>Bluth</con:expectedValue>
              <con:caseSensitive>true</con:caseSensitive>
              <con:numberType>false</con:numberType>
              <con:expectedDataType>1</con:expectedDataType>
            </con:elements>
            <con:elements>
              <con:path>$['data'][0]['avatar']</con:path>
              <con:element>avatar</con:element>
              <con:operatorId>1</con:operatorId>
              <con:enabled>true</con:enabled>
              <con:expectedValue>https://reqres.in/img/faces/1-image.jpg</con:expectedValue>
              <con:caseSensitive>true</con:caseSensitive>
              <con:numberType>false</con:numberType>
              <con:expectedDataType>1</con:expectedDataType>
            </con:elements>
            <con:elements>
              <con:path>$['data'][1]['id']</con:path>
              <con:element>id</con:element>
              <con:operatorId>1</con:operatorId>
              <con:enabled>true</con:enabled>
              <con:expectedValue>2</con:expectedValue>
              <con:caseSensitive>true</con:caseSensitive>
              <con:numberType>true</con:numberType>
              <con:expectedDataType>2</con:expectedDataType>
            </con:elements>
            <con:elements>
              <con:path>$['data'][1]['email']</con:path>
              <con:element>email</con:element>
              <con:operatorId>1</con:operatorId>
              <con:enabled>true</con:enabled>
              <con:expectedValue>janet.weaver@reqres.in</con:expectedValue>
              <con:caseSensitive>true</con:caseSensitive>
              <con:numberType>false</con:numberType>
              <con:expectedDataType>1</con:expectedDataType>
            </con:elements>
            <con:elements>
              <con:path>$['data'][1]['first_name']</con:path>
              <con:element>first_name</con:element>
              <con:operatorId>1</con:operatorId>
              <con:enabled>true</con:enabled>
              <con:expectedValue>Janet</con:expectedValue>
              <con:caseSensitive>true</con:caseSensitive>
              <con:numberType>false</con:numberType>
              <con:expectedDataType>1</con:expectedDataType>
            </con:elements>
            <con:elements>
              <con:path>$['data'][1]['last_name']</con:path>
              <con:element>last_name</con:element>
              <con:operatorId>1</con:operatorId>
              <con:enabled>true</con:enabled>
              <con:expectedValue>Weaver</con:expectedValue>
              <con:caseSensitive>true</con:caseSensitive>
              <con:numberType>false</con:numberType>
              <con:expectedDataType>1</con:expectedDataType>
            </con:elements>
            <con:elements>
              <con:path>$['data'][1]['avatar']</con:path>
              <con:element>avatar</con:element>
              <con:operatorId>1</con:operatorId>
              <con:enabled>true</con:enabled>
              <con:expectedValue>https://reqres.in/img/faces/2-image.jpg</con:expectedValue>
              <con:caseSensitive>true</con:caseSensitive>
              <con:numberType>false</con:numberType>
              <con:expectedDataType>1</con:expectedDataType>
            </con:elements>
            <con:elements>
              <con:path>$['data'][2]['id']</con:path>
              <con:element>id</con:element>
              <con:operatorId>1</con:operatorId>
              <con:enabled>true</con:enabled>
              <con:expectedValue>3</con:expectedValue>
              <con:caseSensitive>true</con:caseSensitive>
              <con:numberType>true</con:numberType>
              <con:expectedDataType>2</con:expectedDataType>
            </con:elements>
            <con:elements>
              <con:path>$['data'][2]['email']</con:path>
              <con:element>email</con:element>
              <con:operatorId>1</con:operatorId>
              <con:enabled>true</con:enabled>
              <con:expectedValue>emma.wong@reqres.in</con:expectedValue>
              <con:caseSensitive>true</con:caseSensitive>
              <con:numberType>false</con:numberType>
              <con:expectedDataType>1</con:expectedDataType>
            </con:elements>
            <con:elements>
              <con:path>$['data'][2]['first_name']</con:path>
              <con:element>first_name</con:element>
              <con:operatorId>1</con:operatorId>
              <con:enabled>true</con:enabled>
              <con:expectedValue>Emma</con:expectedValue>
              <con:caseSensitive>true</con:caseSensitive>
              <con:numberType>false</con:numberType>
              <con:expectedDataType>1</con:expectedDataType>
            </con:elements>
            <con:elements>
              <con:path>$['data'][2]['last_name']</con:path>
              <con:element>last_name</con:element>
              <con:operatorId>1</con:operatorId>
              <con:enabled>true</con:enabled>
              <con:expectedValue>Wong</con:expectedValue>
              <con:caseSensitive>true</con:caseSensitive>
              <con:numberType>false</con:numberType>
              <con:expectedDataType>1</con:expectedDataType>
            </con:elements>
            <con:elements>
              <con:path>$['data'][2]['avatar']</con:path>
              <con:element>avatar</con:element>
              <con:operatorId>1</con:operatorId>
              <con:enabled>true</con:enabled>
              <con:expectedValue>https://reqres.in/img/faces/3-image.jpg</con:expectedValue>
              <con:caseSensitive>true</con:caseSensitive>
              <con:numberType>false</con:numberType>
              <con:expectedDataType>1</con:expectedDataType>
            </con:elements>
            <con:elements>
              <con:path>$['data'][3]['id']</con:path>
              <con:element>id</con:element>
              <con:operatorId>1</con:operatorId>
              <con:enabled>true</con:enabled>
              <con:expectedValue>4</con:expectedValue>
              <con:caseSensitive>true</con:caseSensitive>
              <con:numberType>true</con:numberType>
              <con:expectedDataType>2</con:expectedDataType>
            </con:elements>
            <con:elements>
              <con:path>$['data'][3]['email']</con:path>
              <con:element>email</con:element>
              <con:operatorId>1</con:operatorId>
              <con:enabled>true</con:enabled>
              <con:expectedValue>eve.holt@reqres.in</con:expectedValue>
              <con:caseSensitive>true</con:caseSensitive>
              <con:numberType>false</con:numberType>
              <con:expectedDataType>1</con:expectedDataType>
            </con:elements>
            <con:elements>
              <con:path>$['data'][3]['first_name']</con:path>
              <con:element>first_name</con:element>
              <con:operatorId>1</con:operatorId>
              <con:enabled>true</con:enabled>
              <con:expectedValue>Eve</con:expectedValue>
              <con:caseSensitive>true</con:caseSensitive>
              <con:numberType>false</con:numberType>
              <con:expectedDataType>1</con:expectedDataType>
            </con:elements>
            <con:elements>
              <con:path>$['data'][3]['last_name']</con:path>
              <con:element>last_name</con:element>
              <con:operatorId>1</con:operatorId>
              <con:enabled>true</con:enabled>
              <con:expectedValue>Holt</con:expectedValue>
              <con:caseSensitive>true</con:caseSensitive>
              <con:numberType>false</con:numberType>
              <con:expectedDataType>1</con:expectedDataType>
            </con:elements>
            <con:elements>
              <con:path>$['data'][3]['avatar']</con:path>
              <con:element>avatar</con:element>
              <con:operatorId>1</con:operatorId>
              <con:enabled>true</con:enabled>
              <con:expectedValue>https://reqres.in/img/faces/4-image.jpg</con:expectedValue>
              <con:caseSensitive>true</con:caseSensitive>
              <con:numberType>false</con:numberType>
              <con:expectedDataType>1</con:expectedDataType>
            </con:elements>
            <con:elements>
              <con:path>$['data'][4]['id']</con:path>
              <con:element>id</con:element>
              <con:operatorId>1</con:operatorId>
              <con:enabled>true</con:enabled>
              <con:expectedValue>5</con:expectedValue>
              <con:caseSensitive>true</con:caseSensitive>
              <con:numberType>true</con:numberType>
              <con:expectedDataType>2</con:expectedDataType>
            </con:elements>
            <con:elements>
              <con:path>$['data'][4]['email']</con:path>
              <con:element>email</con:element>
              <con:operatorId>1</con:operatorId>
              <con:enabled>true</con:enabled>
              <con:expectedValue>charles.morris@reqres.in</con:expectedValue>
              <con:caseSensitive>true</con:caseSensitive>
              <con:numberType>false</con:numberType>
              <con:expectedDataType>1</con:expectedDataType>
            </con:elements>
            <con:elements>
              <con:path>$['data'][4]['first_name']</con:path>
              <con:element>first_name</con:element>
              <con:operatorId>1</con:operatorId>
              <con:enabled>true</con:enabled>
              <con:expectedValue>Charles</con:expectedValue>
              <con:caseSensitive>true</con:caseSensitive>
              <con:numberType>false</con:numberType>
              <con:expectedDataType>1</con:expectedDataType>
            </con:elements>
            <con:elements>
              <con:path>$['data'][4]['last_name']</con:path>
              <con:element>last_name</con:element>
              <con:operatorId>1</con:operatorId>
              <con:enabled>true</con:enabled>
              <con:expectedValue>Morris</con:expectedValue>
              <con:caseSensitive>true</con:caseSensitive>
              <con:numberType>false</con:numberType>
              <con:expectedDataType>1</con:expectedDataType>
            </con:elements>
            <con:elements>
              <con:path>$['data'][4]['avatar']</con:path>
              <con:element>avatar</con:element>
              <con:operatorId>1</con:operatorId>
              <con:enabled>true</con:enabled>
              <con:expectedValue>https://reqres.in/img/faces/5-image.jpg</con:expectedValue>
              <con:caseSensitive>true</con:caseSensitive>
              <con:numberType>false</con:numberType>
              <con:expectedDataType>1</con:expectedDataType>
            </con:elements>
            <con:elements>
              <con:path>$['data'][5]['id']</con:path>
              <con:element>id</con:element>
              <con:operatorId>1</con:operatorId>
              <con:enabled>true</con:enabled>
              <con:expectedValue>6</con:expectedValue>
              <con:caseSensitive>true</con:caseSensitive>
              <con:numberType>true</con:numberType>
              <con:expectedDataType>2</con:expectedDataType>
            </con:elements>
            <con:elements>
              <con:path>$['data'][5]['email']</con:path>
              <con:element>email</con:element>
              <con:operatorId>1</con:operatorId>
              <con:enabled>true</con:enabled>
              <con:expectedValue>tracey.ramos@reqres.in</con:expectedValue>
              <con:caseSensitive>true</con:caseSensitive>
              <con:numberType>false</con:numberType>
              <con:expectedDataType>1</con:expectedDataType>
            </con:elements>
            <con:elements>
              <con:path>$['data'][5]['first_name']</con:path>
              <con:element>first_name</con:element>
              <con:operatorId>1</con:operatorId>
              <con:enabled>true</con:enabled>
              <con:expectedValue>Tracey</con:expectedValue>
              <con:caseSensitive>true</con:caseSensitive>
              <con:numberType>false</con:numberType>
              <con:expectedDataType>1</con:expectedDataType>
            </con:elements>
            <con:elements>
              <con:path>$['data'][5]['last_name']</con:path>
              <con:element>last_name</con:element>
              <con:operatorId>1</con:operatorId>
              <con:enabled>true</con:enabled>
              <con:expectedValue>Ramos</con:expectedValue>
              <con:caseSensitive>true</con:caseSensitive>
              <con:numberType>false</con:numberType>
              <con:expectedDataType>1</con:expectedDataType>
            </con:elements>
            <con:elements>
              <con:path>$['data'][5]['avatar']</con:path>
              <con:element>avatar</con:element>
              <con:operatorId>1</con:operatorId>
              <con:enabled>true</con:enabled>
              <con:expectedValue>https://reqres.in/img/faces/6-image.jpg</con:expectedValue>
              <con:caseSensitive>true</con:caseSensitive>
              <con:numberType>false</con:numberType>
              <con:expectedDataType>1</con:expectedDataType>
            </con:elements>
            <con:elements>
              <con:path>$['support']['url']</con:path>
              <con:element>url</con:element>
              <con:operatorId>1</con:operatorId>
              <con:enabled>true</con:enabled>
              <con:expectedValue>https://reqres.in/#support-heading</con:expectedValue>
              <con:caseSensitive>true</con:caseSensitive>
              <con:numberType>false</con:numberType>
              <con:expectedDataType>1</con:expectedDataType>
            </con:elements>
            <con:elements>
              <con:path>$['support']['text']</con:path>
              <con:element>text</con:element>
              <con:operatorId>1</con:operatorId>
              <con:enabled>true</con:enabled>
              <con:expectedValue>To keep ReqRes free, contributions towards server costs are appreciated!</con:expectedValue>
              <con:caseSensitive>true</con:caseSensitive>
              <con:numberType>false</con:numberType>
              <con:expectedDataType>1</con:expectedDataType>
            </con:elements>
            <con:originalMessage>{"page":1,"per_page":6,"total":12,"total_pages":2,"data":[{"id":1,"email":"george.bluth@reqres.in","first_name":"George","last_name":"Bluth","avatar":"https://reqres.in/img/faces/1-image.jpg"},{"id":2,"email":"janet.weaver@reqres.in","first_name":"Janet","last_name":"Weaver","avatar":"https://reqres.in/img/faces/2-image.jpg"},{"id":3,"email":"emma.wong@reqres.in","first_name":"Emma","last_name":"Wong","avatar":"https://reqres.in/img/faces/3-image.jpg"},{"id":4,"email":"eve.holt@reqres.in","first_name":"Eve","last_name":"Holt","avatar":"https://reqres.in/img/faces/4-image.jpg"},{"id":5,"email":"charles.morris@reqres.in","first_name":"Charles","last_name":"Morris","avatar":"https://reqres.in/img/faces/5-image.jpg"},{"id":6,"email":"tracey.ramos@reqres.in","first_name":"Tracey","last_name":"Ramos","avatar":"https://reqres.in/img/faces/6-image.jpg"}],"support":{"url":"https://reqres.in/#support-heading","text":"To keep ReqRes free, contributions towards server costs are appreciated!"}}</con:originalMessage>
          </con:configuration>
        </con:assertion>
        <con:credentials>
          <con:selectedAuthProfile>No Authorization</con:selectedAuthProfile>
          <con:authType>No Authorization</con:authType>
        </con:credentials>
        <con:jmsConfig JMSDeliveryMode="PERSISTENT"/>
        <con:parameters/>
        <con:environmentSpec>
          <con:entry environmentId="617e5475-26b8-4094-a9a4-6572872f9ab2">
            <con:authProfile>Inherit From Parent</con:authProfile>
          </con:entry>
        </con:environmentSpec>
      </con:restRequest>
    </con:config>
  </con:testStep>
  <con:properties/>
  <con:reportParameters/>
  <con:breakPoints>
    <con:testStepId>c9e445cb-d07a-4bff-a289-c3627bcebf5d</con:testStepId>
    <con:status>NONE</con:status>
    <con:properties/>
  </con:breakPoints>
  <con:environmentSpec>
    <con:entry environmentId="617e5475-26b8-4094-a9a4-6572872f9ab2">
      <con:authProfile>Inherit From Parent</con:authProfile>
    </con:entry>
  </con:environmentSpec>
</con:testCase>
